{
  "project_info": {
    "project_number": "15312801529",
    "project_id": "rekam-medik-619e4",
    "storage_bucket": "rekam-medik-619e4.appspot.com"
  },
  "client": [
    {
      "client_info": {
        "mobilesdk_app_id": "1:15312801529:android:4d9aa800822742fceb9c28",
        "android_client_info": {
          "package_name": "com.example.rekammedik"
        }
      },
      "oauth_client": [
        {
          "client_id": "15312801529-3a1t56d5sf1bg0hs50btujm910ntksdf.apps.googleusercontent.com",
          "client_type": 3
        }
      ],
      "api_key": [
        {
          "current_key": "AIzaSyAlR7yKuacFVNe1dSWtGjKDojlFTMUs9MA"
        }
      ],
      "services": {
        "appinvite_service": {
          "other_platform_oauth_client": [
            {
              "client_id": "15312801529-3a1t56d5sf1bg0hs50btujm910ntksdf.apps.googleusercontent.com",
              "client_type": 3
            }
          ]
        }
      }
    }
  ],
  "configuration_version": "1"
}